{
	"info": {
		"_postman_id": "1fe234e3-4798-456f-b3a8-1abc3447bf0b",
		"name": "Hibernate Task 1",
		"schema": "https://schema.getpostman.com/json/collection/v2.1.0/collection.json"
	},
	"item": [
		{
			"name": "Students",
			"item": [
				{
					"name": "Get Students ALL",
					"request": {
						"method": "GET",
						"header": [],
						"url": {
							"raw": "http://localhost:8080/api/v1/students/",
							"protocol": "http",
							"host": [
								"localhost"
							],
							"port": "8080",
							"path": [
								"api",
								"v1",
								"students",
								""
							]
						}
					},
					"response": []
				},
				{
					"name": "Get Students by ID",
					"request": {
						"method": "GET",
						"header": [],
						"url": {
							"raw": "http://localhost:8080/api/v1/students/1",
							"protocol": "http",
							"host": [
								"localhost"
							],
							"port": "8080",
							"path": [
								"api",
								"v1",
								"students",
								"1"
							]
						}
					},
					"response": []
				},
				{
					"name": "Add New Student",
					"request": {
						"method": "POST",
						"header": [],
						"body": {
							"mode": "raw",
							"raw": "{\r\n        \"firstName\": \"Luke\",\r\n        \"lastName\": \"Skywalker\"\r\n    }",
							"options": {
								"raw": {
									"language": "json"
								}
							}
						},
						"url": {
							"raw": "http://localhost:8080/api/v1/students",
							"protocol": "http",
							"host": [
								"localhost"
							],
							"port": "8080",
							"path": [
								"api",
								"v1",
								"students"
							]
						}
					},
					"response": []
				},
				{
					"name": "\"Update\" Student / number",
					"request": {
						"method": "PUT",
						"header": [],
						"body": {
							"mode": "raw",
							"raw": "{\r\n    \"id\": 4,\r\n    \"firstName\": \"Oskar\",\r\n    \"lastName\": \"Skywalker\",\r\n    \"teacher\": {\"id\": 1}\r\n}",
							"options": {
								"raw": {
									"language": "json"
								}
							}
						},
						"url": {
							"raw": "http://localhost:8080/api/v1/students/4",
							"protocol": "http",
							"host": [
								"localhost"
							],
							"port": "8080",
							"path": [
								"api",
								"v1",
								"students",
								"4"
							]
						}
					},
					"response": []
				},
				{
					"name": "Delete Student",
					"request": {
						"method": "DELETE",
						"header": [],
						"url": {
							"raw": "http://localhost:8080/api/v1/students/2",
							"protocol": "http",
							"host": [
								"localhost"
							],
							"port": "8080",
							"path": [
								"api",
								"v1",
								"students",
								"2"
							]
						}
					},
					"response": []
				}
			]
		},
		{
			"name": "Skills",
			"item": [
				{
					"name": "Get ALL Skills",
					"request": {
						"method": "GET",
						"header": [],
						"url": {
							"raw": "http://localhost:8080/api/v1/skills",
							"protocol": "http",
							"host": [
								"localhost"
							],
							"port": "8080",
							"path": [
								"api",
								"v1",
								"skills"
							]
						}
					},
					"response": []
				},
				{
					"name": "Get Skill by ID",
					"request": {
						"method": "GET",
						"header": [],
						"url": {
							"raw": "http://localhost:8080/api/v1/skills/1",
							"protocol": "http",
							"host": [
								"localhost"
							],
							"port": "8080",
							"path": [
								"api",
								"v1",
								"skills",
								"1"
							]
						}
					},
					"response": []
				},
				{
					"name": "Add Skill",
					"request": {
						"method": "POST",
						"header": [],
						"body": {
							"mode": "raw",
							"raw": "{\r\n    \"description\": \"CMD\"\r\n}",
							"options": {
								"raw": {
									"language": "json"
								}
							}
						},
						"url": {
							"raw": "http://localhost:8080/api/v1/skills",
							"protocol": "http",
							"host": [
								"localhost"
							],
							"port": "8080",
							"path": [
								"api",
								"v1",
								"skills"
							]
						}
					},
					"response": []
				},
				{
					"name": "\"Update\" Skill",
					"request": {
						"method": "PUT",
						"header": [],
						"body": {
							"mode": "raw",
							"raw": "{\r\n        \"id\": 1,\r\n        \"description\": \"JavaScript\",\r\n        \"teacher\": [{\"id\": 1}, {\"id\": 2}]\r\n    }",
							"options": {
								"raw": {
									"language": "json"
								}
							}
						},
						"url": {
							"raw": "http://localhost:8080/api/v1/skills/1",
							"protocol": "http",
							"host": [
								"localhost"
							],
							"port": "8080",
							"path": [
								"api",
								"v1",
								"skills",
								"1"
							]
						}
					},
					"response": []
				},
				{
					"name": "Delete Skill",
					"request": {
						"method": "DELETE",
						"header": [],
						"url": {
							"raw": "http://localhost:8080/api/v1/skills/3",
							"protocol": "http",
							"host": [
								"localhost"
							],
							"port": "8080",
							"path": [
								"api",
								"v1",
								"skills",
								"3"
							]
						}
					},
					"response": []
				}
			]
		},
		{
			"name": "Teachers",
			"item": [
				{
					"name": "Get Teachers ALL",
					"request": {
						"method": "GET",
						"header": [],
						"url": {
							"raw": "http://localhost:8080/api/v1/teachers",
							"protocol": "http",
							"host": [
								"localhost"
							],
							"port": "8080",
							"path": [
								"api",
								"v1",
								"teachers"
							]
						}
					},
					"response": []
				},
				{
					"name": "Get Teacher by ID",
					"request": {
						"method": "GET",
						"header": [],
						"url": {
							"raw": "http://localhost:8080/api/v1/teachers/2",
							"protocol": "http",
							"host": [
								"localhost"
							],
							"port": "8080",
							"path": [
								"api",
								"v1",
								"teachers",
								"2"
							]
						}
					},
					"response": []
				},
				{
					"name": "Add New Teacher",
					"request": {
						"method": "POST",
						"header": [],
						"body": {
							"mode": "raw",
							"raw": "{\r\n    \"firstName\": \"Clint\",\r\n    \"lastName\": \"Mansell\"\r\n}",
							"options": {
								"raw": {
									"language": "json"
								}
							}
						},
						"url": {
							"raw": "http://localhost:8080/api/v1/teachers",
							"protocol": "http",
							"host": [
								"localhost"
							],
							"port": "8080",
							"path": [
								"api",
								"v1",
								"teachers"
							]
						}
					},
					"response": []
				},
				{
					"name": "\"Update\" Teache by ID",
					"request": {
						"method": "PUT",
						"header": [],
						"body": {
							"mode": "raw",
							"raw": "{\r\n    \"id\": 2,\r\n    \"firstName\": \"Clint\",\r\n    \"lastName\": \"Mansell\",\r\n    \"skills\": [{\"id\": 1}, {\"id\":3}],\r\n    \"students\": []\r\n}",
							"options": {
								"raw": {
									"language": "json"
								}
							}
						},
						"url": {
							"raw": "http://localhost:8080/api/v1/teachers/2",
							"protocol": "http",
							"host": [
								"localhost"
							],
							"port": "8080",
							"path": [
								"api",
								"v1",
								"teachers",
								"2"
							]
						}
					},
					"response": []
				},
				{
					"name": "Delete Teacher ID",
					"request": {
						"method": "DELETE",
						"header": [],
						"url": {
							"raw": "http://localhost:8080/api/v1/teachers/3",
							"protocol": "http",
							"host": [
								"localhost"
							],
							"port": "8080",
							"path": [
								"api",
								"v1",
								"teachers",
								"3"
							]
						}
					},
					"response": []
				}
			]
		}
	]
}